<svg width="38" height="33" viewBox="0 0 38 33" fill="none" xmlns="http://www.w3.org/2000/svg">
<path d="M33.6334 6.05486C33.6334 6.05486 35.7837 4.43128 36.5363 2.05001C36.5363 2.05001 33.6334 3.45712 31.8056 3.45712C30.4079 1.61706 28.15 0.534668 25.7846 0.534668C21.484 0.534668 18.0434 3.99832 18.0434 8.32788C18.0434 9.19379 18.151 9.95147 18.4735 10.8174C18.4735 10.8174 18.4735 10.8174 18.366 10.8174C6.86168 10.0597 2.23846 2.59121 2.23846 2.59121C2.23846 2.59121 -0.556975 8.43612 3.95873 13.0904C3.95873 13.0904 2.77605 13.1986 1.37833 12.441C1.37833 12.441 0.410676 17.42 6.64665 20.1259C6.64665 20.1259 4.92638 20.5589 3.95873 20.4507C3.95873 20.4507 5.46397 25.1049 11.0548 25.7544C11.0548 25.7544 8.68947 28.7851 0.518188 29.3263C0.518188 29.3263 14.0653 38.2019 27.1824 26.1873C27.1824 26.1873 32.8808 21.3166 33.6334 11.4668L37.504 5.18895L33.6334 6.05486Z" fill="#29B3F3"/>
</svg>
